<svg width="60" height="60" viewBox="0 0 60 60" fill="none" xmlns="http://www.w3.org/2000/svg">
<g opacity="0.15">
<path d="M30 60C46.5685 60 60 46.5685 60 30C60 13.4315 46.5685 0 30 0C13.4315 0 0 13.4315 0 30C0 46.5685 13.4315 60 30 60Z" fill="#D8D8D8"/>
<mask id="mask0" mask-type="alpha" maskUnits="userSpaceOnUse" x="0" y="0" width="60" height="60">
<path d="M30 60C46.5685 60 60 46.5685 60 30C60 13.4315 46.5685 0 30 0C13.4315 0 0 13.4315 0 30C0 46.5685 13.4315 60 30 60Z" fill="white"/>
</mask>
<g mask="url(#mask0)">
<rect x="-3" y="-6" width="63" height="70" fill="#FE4D62"/>
</g>
</g>
<path d="M30 54C43.2548 54 54 43.2548 54 30C54 16.7452 43.2548 6 30 6C16.7452 6 6 16.7452 6 30C6 43.2548 16.7452 54 30 54Z" fill="#D8D8D8"/>
<mask id="mask1" mask-type="alpha" maskUnits="userSpaceOnUse" x="6" y="6" width="48" height="48">
<path d="M30 54C43.2548 54 54 43.2548 54 30C54 16.7452 43.2548 6 30 6C16.7452 6 6 16.7452 6 30C6 43.2548 16.7452 54 30 54Z" fill="white"/>
</mask>
<g mask="url(#mask1)">
<rect x="3.6001" y="1.19995" width="50.4" height="56" fill="#FE4D62"/>
</g>
<path d="M22.4375 22.1875H34.8125C35.3854 22.1875 35.8724 22.388 36.2734 22.7891C36.6745 23.1901 36.875 23.6771 36.875 24.25V24.9375H37.5625C38.1354 24.9375 38.6224 25.138 39.0234 25.5391C39.4245 25.9401 39.625 26.4271 39.625 27V35.25C39.625 35.8229 39.4245 36.3099 39.0234 36.7109C38.6224 37.112 38.1354 37.3125 37.5625 37.3125H25.1875C24.6146 37.3125 24.1276 37.112 23.7266 36.7109C23.3255 36.3099 23.125 35.8229 23.125 35.25V34.5625H22.4375C21.8646 34.5625 21.3776 34.362 20.9766 33.9609C20.5755 33.5599 20.375 33.0729 20.375 32.5V24.25C20.375 23.6771 20.5755 23.1901 20.9766 22.7891C21.3776 22.388 21.8646 22.1875 22.4375 22.1875ZM22.4375 23.5625C21.9792 23.5625 21.75 23.7917 21.75 24.25V32.5C21.75 32.9583 21.9792 33.1875 22.4375 33.1875H34.8125C35.2708 33.1875 35.5 32.9583 35.5 32.5V26.3125H22.4375V24.9375H35.5V24.25C35.5 23.7917 35.2708 23.5625 34.8125 23.5625H22.4375ZM36.875 26.3125V27.6875H38.25V27C38.25 26.5417 38.0208 26.3125 37.5625 26.3125H36.875ZM36.875 29.0625V32.5C36.875 33.0729 36.6745 33.5599 36.2734 33.9609C35.8724 34.362 35.3854 34.5625 34.8125 34.5625H24.5V35.25C24.5 35.7083 24.7292 35.9375 25.1875 35.9375H37.5625C38.0208 35.9375 38.25 35.7083 38.25 35.25V29.0625H36.875Z" fill="#FAFBFF"/>
</svg>
